^C:\USERS\DARKV\ONEDRIVE\РАБОЧИЙ СТОЛ\UE(C++)\HOMEWORK_19\X64\DEBUG\HOMEWORK_19.OBJ
C:\USERS\DARKV\ONEDRIVE\Рабочий стол\UE(C++)\HOMEWORK_19\X64\DEBUG\HOMEWORK_19.EXE
C:\USERS\DARKV\ONEDRIVE\Рабочий стол\UE(C++)\HOMEWORK_19\X64\DEBUG\HOMEWORK_19.ILK
C:\USERS\DARKV\ONEDRIVE\Рабочий стол\UE(C++)\HOMEWORK_19\X64\DEBUG\HOMEWORK_19.PDB
